{
	"name": "Default bindings for Gamepads",
	"controller_type": "gamepad",
	"last_edited_by": "UnrealEngine",
	"bindings":
	{
		"/actions/main":
		{
			"sources": []
		}
	},
	"description": "LivingWithLag-10757647"
}